x-axis,1,2
second,Volt,Volt
-4.00000E-09,-840.09371325374E-03,-601.46443732083E-03
-3.98438E-09,-798.25270920991E-03,-601.46443732083E-03
-3.96875E-09,-714.57070112228E-03,-622.38493934274E-03
-3.95313E-09,-651.80919505655E-03,-622.38493934274E-03
-3.93750E-09,-568.12718696892E-03,-664.22594338656E-03
-3.92188E-09,-505.36568090319E-03,-726.98744945229E-03
-3.90625E-09,-442.60417483747E-03,-789.74895551802E-03
-3.89063E-09,-421.68367281556E-03,-852.51046158375E-03
-3.87500E-09,-400.76317079365E-03,-936.19246967139E-03
-3.85938E-09,-400.76317079366E-03,-1.04079497978094E+00
-3.84375E-09,-442.60417483748E-03,-1.14539748989047E+00
-3.82813E-09,-463.52467685940E-03,-1.20815899595619E+00
-3.81250E-09,-526.28618292513E-03,-1.25000000000001E+00
-3.79687E-09,-609.96819101277E-03,-1.27092050202191E+00
-3.78125E-09,-693.65019910042E-03,-1.27092050202189E+00
-3.76562E-09,-819.17321123187E-03,-1.20815899595616E+00
-3.75000E-09,-923.77572134142E-03,-1.14539748989042E+00
-3.73437E-09,-1.04929873347287E+00,-1.04079497978086E+00
-3.71875E-09,-1.15390124358241E+00,-915.27196764941E-03
-3.70312E-09,-1.25850375369195E+00,-789.74895551797E-03
-3.68750E-09,-1.36310626380148E+00,-685.14644540842E-03
-3.67187E-09,-1.42586776986721E+00,-580.54393529889E-03
-3.65625E-09,-1.48862927593292E+00,-496.86192721128E-03
-3.64062E-09,-1.50954977795482E+00,-475.94142518937E-03
-3.62500E-09,-1.50954977795480E+00,-455.02092316748E-03
-3.60937E-09,-1.46770877391098E+00,-475.94142518939E-03
-3.59375E-09,-1.42586776986717E+00,-517.78242923321E-03
-3.57812E-09,-1.38402676582335E+00,-559.62343327704E-03
-3.56250E-09,-1.34218576177953E+00,-643.30544136468E-03
-3.54687E-09,-1.30034475773572E+00,-726.98744945231E-03
-3.53125E-09,-1.27942425571383E+00,-810.66945753994E-03
-3.51562E-09,-1.30034475773574E+00,-873.43096360566E-03
-3.50000E-09,-1.34218576177957E+00,-936.19246967138E-03
-3.48437E-09,-1.40494726784530E+00,-957.11297169328E-03
-3.46875E-09,-1.48862927593294E+00,-978.03347371519E-03
-3.45312E-09,-1.57231128402057E+00,-978.03347371518E-03
-3.43750E-09,-1.65599329210820E+00,-957.11297169327E-03
-3.42187E-09,-1.71875479817391E+00,-936.19246967136E-03
-3.40625E-09,-1.73967530019581E+00,-915.27196764945E-03
-3.39063E-09,-1.71875479817389E+00,-894.35146562755E-03
-3.37500E-09,-1.67691379413006E+00,-873.43096360565E-03
-3.35938E-09,-1.59323178604242E+00,-894.35146562756E-03
-3.34375E-09,-1.48862927593288E+00,-936.19246967139E-03
-3.32813E-09,-1.38402676582333E+00,-998.95397573713E-03
-3.31250E-09,-1.27942425571380E+00,-1.10355648584667E+00
-3.29688E-09,-1.19574224762617E+00,-1.20815899595621E+00
-3.28125E-09,-1.13298074156046E+00,-1.31276150606575E+00
-3.26563E-09,-1.13298074156046E+00,-1.39644351415337E+00
-3.25000E-09,-1.15390124358240E+00,-1.43828451819717E+00
-3.23438E-09,-1.25850375369194E+00,-1.41736401617525E+00
-3.21875E-09,-1.36310626380149E+00,-1.33368200808760E+00
-3.20313E-09,-1.48862927593294E+00,-1.18723849393421E+00
-3.18750E-09,-1.61415228806439E+00,-957.11297169322E-03
-3.17188E-09,-1.71875479817393E+00,-726.98744945222E-03
-3.15625E-09,-1.80243680626156E+00,-475.94142518932E-03
-3.14063E-09,-1.86519831232727E+00,-266.73640497025E-03
-3.12500E-09,-1.88611881434917E+00,-99.37238879500E-03
-3.10938E-09,-1.88611881434916E+00,-15.69038070738E-03
-3.09375E-09,-1.84427781030534E+00,-15.69038070739E-03
-3.07813E-09,-1.78151630423961E+00,-57.53138475124E-03
-3.06250E-09,-1.69783429615198E+00,-203.97489890460E-03
-3.04688E-09,-1.61415228806434E+00,-350.41841305796E-03
-3.03125E-09,-1.53047027997672E+00,-496.86192721130E-03
-3.01563E-09,-1.48862927593289E+00,-559.62343327702E-03
-3.00000E-09,-1.42586776986717E+00,-601.46443732081E-03
-2.98438E-09,-1.38402676582336E+00,-496.86192721124E-03
-2.96875E-09,-1.36310626380145E+00,-308.57740901406E-03
-2.95313E-09,-1.34218576177955E+00,-57.53138475113E-03
-2.93750E-09,-1.34218576177955E+00,+277.19664759941E-03
-2.92188E-09,-1.36310626380146E+00,+611.92467994994E-03
-2.90625E-09,-1.36310626380146E+00,+925.73221027855E-03
-2.89063E-09,-1.40494726784528E+00,+1.11401672847571E+00
-2.87500E-09,-1.44678827188909E+00,+1.23953974060714E+00
-2.85938E-09,-1.46770877391100E+00,+1.23953974060712E+00
-2.84375E-09,-1.48862927593291E+00,+1.13493723049757E+00
-2.82813E-09,-1.48862927593291E+00,+946.65271230038E-03
-2.81250E-09,-1.48862927593290E+00,+695.60668803748E-03
-2.79688E-09,-1.46770877391099E+00,+465.48116579649E-03
-2.78125E-09,-1.40494726784526E+00,+256.27614557741E-03
-2.76563E-09,-1.32126525975763E+00,+151.67363546788E-03
-2.75000E-09,-1.23758325166999E+00,+109.83263142409E-03
-2.73438E-09,-1.11206023953853E+00,+256.27614557746E-03
-2.71875E-09,-986.53722740708E-03,+465.48116579656E-03
-2.70313E-09,-881.93471729754E-03,+758.36819410328E-03
-2.68750E-09,-798.25270920991E-03,+1.09309622645382E+00
-2.67188E-09,-735.49120314419E-03,+1.42782425880436E+00
-2.65625E-09,-714.57070112229E-03,+1.72071128711107E+00
-2.64063E-09,-735.49120314420E-03,+1.95083680935206E+00
-2.62500E-09,-777.33220718802E-03,+2.11820082552732E+00
-2.60938E-09,-861.01421527566E-03,+2.18096233159304E+00
-2.59375E-09,-965.61672538520E-03,+2.18096233159303E+00
-2.57813E-09,-1.07021923549474E+00,+2.16004182957112E+00
-2.56250E-09,-1.17482174560428E+00,+2.05543931946158E+00
-2.54688E-09,-1.23758325167001E+00,+1.99267781339585E+00
-2.53125E-09,-1.27942425571382E+00,+1.92991630733013E+00
-2.51563E-09,-1.25850375369191E+00,+1.92991630733013E+00
-2.50000E-09,-1.21666274964809E+00,+1.92991630733014E+00
-2.48438E-09,-1.11206023953854E+00,+2.01359831541778E+00
-2.46875E-09,-965.61672538518E-03,+2.11820082552732E+00
-2.45313E-09,-798.25270920991E-03,+2.24372383765877E+00
-2.43750E-09,-630.88869303464E-03,+2.36924684979022E+00
-2.42188E-09,-463.52467685937E-03,+2.49476986192167E+00
-2.40625E-09,-296.16066068410E-03,+2.59937237203122E+00
-2.39063E-09,-191.55815057456E-03,+2.68305438011885E+00
-2.37500E-09,-86.95564046502E-03,+2.74581588618457E+00
-2.35938E-09,-45.11463642120E-03,+2.76673638820648E+00
-2.34375E-09,-3.27363237739E-03,+2.80857739225030E+00
-2.32813E-09,-3.27363237739E-03,+2.82949789427221E+00
-2.31250E-09,-3.27363237739E-03,+2.89225940033794E+00
-2.29688E-09,-24.19413439929E-03,+2.97594140842557E+00
-2.28125E-09,-24.19413439929E-03,+3.08054391853512E+00
-2.26563E-09,-45.11463642120E-03,+3.20606693066657E+00
-2.25000E-09,-45.11463642120E-03,+3.33158994279802E+00
-2.23438E-09,-45.11463642120E-03,+3.47803345695138E+00
-2.21875E-09,-45.11463642120E-03,+3.58263596706092E+00
-2.20313E-09,-45.11463642120E-03,+3.64539747312665E+00
-2.18750E-09,-66.03513844311E-03,+3.66631797514856E+00
-2.17188E-09,-107.87614248693E-03,+3.66631797514856E+00
-2.15625E-09,-170.63764855265E-03,+3.66631797514856E+00
-2.14063E-09,-254.31965664029E-03,+3.62447697110474E+00
-2.12500E-09,-338.00166472792E-03,+3.60355646908283E+00
-2.10938E-09,-484.44517888128E-03,+3.60355646908283E+00
-2.09375E-09,-609.96819101274E-03,+3.66631797514856E+00
-2.07813E-09,-714.57070112228E-03,+3.77092048525810E+00
-2.06250E-09,-819.17321123183E-03,+4.02196650952100E+00
-2.04688E-09,-923.77572134137E-03,+4.29393303580581E+00
-2.03125E-09,-986.53722740710E-03,+4.64958157017826E+00
-2.01563E-09,-1.02837823145091E+00,+5.04707110859451E+00
-2.00000E-09,-1.07021923549473E+00,+5.44456064701078E+00
-1.98438E-09,-1.07021923549473E+00,+5.84205018542705E+00
-1.96875E-09,-1.07021923549473E+00,+6.21861922182141E+00
-1.95313E-09,-1.07021923549473E+00,+6.55334725417195E+00
-1.93750E-09,-1.07021923549473E+00,+6.74163177236914E+00
-1.92188E-09,-1.07021923549473E+00,+6.86715478450059E+00
-1.90625E-09,-1.07021923549473E+00,+6.90899578854441E+00
-1.89063E-09,-1.09113973751664E+00,+6.84623428247870E+00
-1.87500E-09,-1.09113973751664E+00,+6.74163177236916E+00
-1.85938E-09,-1.04929873347283E+00,+6.57426775619389E+00
-1.84375E-09,-986.53722740711E-03,+6.38598323799672E+00
-1.82813E-09,-923.77572134138E-03,+6.19769871979954E+00
-1.81250E-09,-777.33220718803E-03,+6.03033470362427E+00
-1.79688E-09,-609.96819101276E-03,+5.86297068744900E+00
-1.78125E-09,-421.68367281558E-03,+5.73744767531754E+00
-1.76563E-09,-191.55815057459E-03,+5.67468616925181E+00
-1.75000E-09,+17.64686964450E-03,+5.65376566722989E+00
-1.73438E-09,+205.93138784168E-03,+5.65376566722989E+00
-1.71875E-09,+352.37490199505E-03,+5.67468616925180E+00
-1.70313E-09,+456.97741210459E-03,+5.69560667127371E+00
-1.68750E-09,+519.73891817032E-03,+5.73744767531752E+00
-1.67188E-09,+540.65942019224E-03,+5.75836817733943E+00
-1.65625E-09,+519.73891817034E-03,+5.75836817733943E+00
-1.64063E-09,+456.97741210462E-03,+5.71652717329562E+00
-1.62500E-09,+394.21590603889E-03,+5.63284516520800E+00
-1.60938E-09,+352.37490199507E-03,+5.50732215307655E+00
-1.59375E-09,+352.37490199506E-03,+5.31903763487938E+00
-1.57813E-09,+352.37490199506E-03,+5.08891211263839E+00
-1.56250E-09,+394.21590603887E-03,+4.77510458230978E+00
-1.54688E-09,+456.97741210460E-03,+4.39853554591543E+00
-1.53125E-09,+561.57992221413E-03,+3.95920500345536E+00
-1.51563E-09,+666.18243232368E-03,+3.47803345695146E+00
-1.50000E-09,+770.78494243322E-03,+2.93410040438184E+00
-1.48438E-09,+833.54644849895E-03,+2.32740584574650E+00
-1.46875E-09,+875.38745254277E-03,+1.69979078508926E+00
-1.45313E-09,+875.38745254278E-03,+1.03033472038819E+00
-1.43750E-09,+812.62594647707E-03,+339.95815366520E-03
-1.42188E-09,+728.94393838944E-03,-350.41841305779E-03
-1.40625E-09,+624.34142827990E-03,-1.06171548180266E+00
-1.39063E-09,+477.89791412655E-03,-1.71025104448185E+00
-1.37500E-09,+331.45439997319E-03,-2.35878660716102E+00
-1.35938E-09,+164.09038379792E-03,-2.98640166781828E+00
-1.34375E-09,-3.27363237735E-03,-3.55125522240984E+00
-1.32813E-09,-170.63764855262E-03,-4.07426777295756E+00
-1.31250E-09,-358.92216674979E-03,-4.57635982148338E+00
-1.29688E-09,-568.12718696888E-03,-5.05753136798729E+00
-1.28125E-09,-777.33220718796E-03,-5.51778241246928E+00
-1.26563E-09,-986.53722740705E-03,-5.97803345695128E+00
-1.25000E-09,-1.19574224762613E+00,-6.41736399941135E+00
-1.23438E-09,-1.36310626380141E+00,-6.89853554591524E+00
-1.21875E-09,-1.48862927593288E+00,-7.42154809646295E+00
-1.20313E-09,-1.59323178604242E+00,-7.94456064701065E+00
-1.18750E-09,-1.63507279008626E+00,-8.55125520564599E+00
-1.17188E-09,-1.63507279008627E+00,-9.19979076832514E+00
-1.15625E-09,-1.59323178604246E+00,-9.89016733504812E+00
-1.14063E-09,-1.55139078199865E+00,-10.6433054078368E+00
-1.12500E-09,-1.48862927593293E+00,-11.3755229786036E+00
-1.10938E-09,-1.44678827188910E+00,-12.1495815534142E+00
-1.09375E-09,-1.46770877391099E+00,-12.8817991241811E+00
-1.07813E-09,-1.48862927593290E+00,-13.5930961929260E+00
-1.06250E-09,-1.61415228806433E+00,-14.2416317556052E+00
-1.04688E-09,-1.78151630423958E+00,-14.8274058122186E+00
-1.03125E-09,-1.96980082243675E+00,-15.3504183627663E+00
-1.01563E-09,-2.19992634467773E+00,-15.7479079011826E+00
-1.00000E-09,-2.40913136489683E+00,-16.0826359335332E+00
-984.38E-12,-2.57649538107211E+00,-16.2499999497085E+00
-968.75E-12,-2.70201839320358E+00,-16.3546024598181E+00
-953.13E-12,-2.80662090331312E+00,-16.4173639658838E+00
-937.50E-12,-2.80662090331316E+00,-16.3964434638619E+00
-921.88E-12,-2.78570040129126E+00,-16.3546024598181E+00
-906.25E-12,-2.70201839320364E+00,-16.2709204517305E+00
-890.63E-12,-2.57649538107220E+00,-16.2499999497086E+00
-875.00E-12,-2.47189287096265E+00,-16.2290794476867E+00
-859.38E-12,-2.32544935680931E+00,-16.3336819577962E+00
-843.75E-12,-2.22084684669975E+00,-16.5219664759933E+00
-828.13E-12,-2.13716483861211E+00,-16.7520919982343E+00
-812.50E-12,-2.07440333254637E+00,-17.0449790265410E+00
-796.88E-12,-2.03256232850255E+00,-17.3587865568696E+00
-781.25E-12,-2.01164182648063E+00,-17.6725940871983E+00
-765.63E-12,-2.01164182648063E+00,-17.9236401114612E+00
-750.00E-12,-2.03256232850253E+00,-18.1119246296584E+00
-734.38E-12,-2.07440333254634E+00,-18.1119246296585E+00
-718.75E-12,-2.13716483861206E+00,-17.9654811155051E+00
-703.13E-12,-2.19992634467779E+00,-17.6935145892204E+00
-687.50E-12,-2.32544935680922E+00,-17.1705020386727E+00
-671.88E-12,-2.49281337298448E+00,-16.5638074800374E+00
-656.25E-12,-2.70201839320355E+00,-15.8734309133144E+00
-640.63E-12,-2.95306441746645E+00,-15.1202928405257E+00
-625.00E-12,-3.22503094375126E+00,-14.3880752697589E+00
-609.38E-12,-3.49699747003607E+00,-13.6767782010140E+00
-593.75E-12,-3.76896399632089E+00,-13.0491631403567E+00
-578.13E-12,-4.04093052260570E+00,-12.5052300877871E+00
-562.50E-12,-4.27105604484671E+00,-12.0449790433051E+00
-546.88E-12,-4.48026106506580E+00,-11.6265690028669E+00
-531.25E-12,-4.62670457921918E+00,-11.2290794644506E+00
-515.63E-12,-4.68946608528493E+00,-10.7688284199686E+00
-500.00E-12,-4.73130708932876E+00,-10.2667363714428E+00
-484.38E-12,-4.73130708932877E+00,-9.66004181280748E+00
-468.75E-12,-4.71038658730686E+00,-9.01150625012832E+00
-453.13E-12,-4.68946608528495E+00,-8.32112968340534E+00
-437.50E-12,-4.66854558326304E+00,-7.60983261466045E+00
-421.88E-12,-4.66854558326304E+00,-6.91945604793745E+00
-406.25E-12,-4.66854558326304E+00,-6.29184098728017E+00
-390.63E-12,-4.73130708932875E+00,-5.83158994279814E+00
-375.00E-12,-4.79406859539447E+00,-5.45502090640377E+00
-359.38E-12,-4.87775060348210E+00,-5.28765689022844E+00
-343.75E-12,-4.94051210954784E+00,-5.20397488214078E+00
-328.13E-12,-4.96143261156976E+00,-5.18305438011885E+00
-312.50E-12,-4.94051210954786E+00,-5.14121337607504E+00
-296.88E-12,-4.85683010146024E+00,-5.03661086596551E+00
-281.25E-12,-4.71038658730689E+00,-4.80648534372455E+00
-265.63E-12,-4.50118156708783E+00,-4.34623429924263E+00
-250.00E-12,-4.27105604484684E+00,-3.76046024262922E+00
-234.38E-12,-3.97816901654013E+00,-2.86087865568723E+00
-218.75E-12,-3.66436148621150E+00,-1.83577405661371E+00
-203.13E-12,-3.35055395588287E+00,-726.98744945257E-03
-187.50E-12,-3.03674642555424E+00,+486.40166781812E-03
-171.88E-12,-2.72293889522561E+00,+1.63702927902308E+00
-156.25E-12,-2.36729036085318E+00,+2.70397488214045E+00
-140.63E-12,-2.01164182648072E+00,+3.56171546503880E+00
-125.00E-12,-1.61415228806446E+00,+4.31485353782754E+00
-109.38E-12,-1.13298074156058E+00,+4.79602508433151E+00
-93.75E-12,-609.96819101287E-03,+5.06799161061638E+00
-78.13E-12,-24.19413439946E-03,+5.19351462274786E+00
-62.50E-12,+687.10293434540E-03,+5.13075311668219E+00
-46.88E-12,+1.44024100713410E+00,+5.02615060657266E+00
-31.25E-12,+2.21429958194475E+00,+4.87970709241930E+00
-15.63E-12,+3.00927865877727E+00,+4.75418408028785E+00
-0.0E+00,+3.78333723358790E+00,+4.67050207220020E+00
+15.62E-12,+4.53647530637664E+00,+4.67050207220018E+00
+31.25E-12,+5.22685187309961E+00,+4.75418408028779E+00
+46.87E-12,+5.85446693375689E+00,+4.94246859848494E+00
+62.50E-12,+6.37747948430467E+00,+5.31903763487927E+00
+78.12E-12,+6.87957153283048E+00,+5.75836817733934E+00
+93.75E-12,+7.31890207529058E+00,+6.28138072788703E+00
+109.37E-12,+7.71639161370686E+00,+6.90899578854427E+00
+125.00E-12,+8.09296065010120E+00,+7.55753135122340E+00
+140.62E-12,+8.46952968649556E+00,+8.24790791794638E+00
+156.25E-12,+8.82517822086803E+00,+8.93828448466941E+00
+171.87E-12,+9.15990625321858E+00,+9.60774054937049E+00
+187.50E-12,+9.43187277950340E+00,+10.1725941039621E+00
+203.12E-12,+9.68291880376631E+00,+10.6537656504660E+00
+218.75E-12,+9.85028281994160E+00,+10.9884936828165E+00
+234.37E-12,+9.91304432600735E+00,+11.1976987030357E+00
+250.00E-12,+9.91304432600737E+00,+11.3232217151671E+00
+265.62E-12,+9.76660081185404E+00,+11.2813807111234E+00
+281.25E-12,+9.49463428556925E+00,+11.1349371969700E+00
+296.87E-12,+9.15990625321873E+00,+10.9048116747290E+00
+312.50E-12,+8.65781420469295E+00,+10.6119246464223E+00
+328.12E-12,+8.11388115212337E+00,+10.3190376181156E+00
+343.75E-12,+7.50718659348803E+00,+10.0889120958746E+00
+359.37E-12,+6.87957153283077E+00,+9.98430958576503E+00
+375.00E-12,+6.23103597015157E+00,+9.94246858172120E+00
+390.62E-12,+5.58250040747240E+00,+10.0679915938526E+00
+406.25E-12,+4.91304434277133E+00,+10.3608786221593E+00
+421.87E-12,+4.28542928211409E+00,+10.7792886625974E+00
+437.50E-12,+3.65781422145682E+00,+11.3859832212327E+00
+453.12E-12,+3.03019916079956E+00,+12.0345187839119E+00
+468.75E-12,+2.40258410014230E+00,+12.7876568567006E+00
+484.37E-12,+1.77496903948500E+00,+13.5198744274674E+00
+500.00E-12,+1.16827448084964E+00,+14.2311714962123E+00
+515.62E-12,+540.65942019238E-03,+14.8378660548477E+00
+531.25E-12,-66.03513844297E-03,+15.3190376013516E+00
+546.87E-12,-651.80919505642E-03,+15.6956066377460E+00
+562.50E-12,-1.23758325166987E+00,+15.8211296498775E+00
+578.12E-12,-1.78151630423951E+00,+15.8420501518995E+00
+593.75E-12,-2.28360835276533E+00,+15.6956066377461E+00
+609.37E-12,-2.72293889522543E+00,+15.4027196094394E+00
+625.00E-12,-3.14134893566361E+00,+15.0261505730451E+00
+640.62E-12,-3.45515646599226E+00,+14.6077405326069E+00
+656.25E-12,-3.70620249025518E+00,+14.1893304921688E+00
+671.87E-12,-3.91540751047428E+00,+13.7709204517306E+00
+687.50E-12,-4.02001002058384E+00,+13.4152719173581E+00
+703.12E-12,-4.08277152664958E+00,+13.1014643870295E+00
+718.75E-12,-4.08277152664959E+00,+12.8504183627666E+00
+734.37E-12,-4.04093052260579E+00,+12.6830543465913E+00
+750.00E-12,-3.93632801249626E+00,+12.5575313344598E+00
+765.62E-12,-3.78988449834290E+00,+12.4529288243503E+00
+781.25E-12,-3.62252048216764E+00,+12.3483263142407E+00
+796.87E-12,-3.43423596397047E+00,+12.2646443061531E+00
+812.50E-12,-3.20411044172948E+00,+12.1391212940216E+00
+828.12E-12,-2.99490542151039E+00,+11.9926777798683E+00
+843.75E-12,-2.76477989926939E+00,+11.8880752697587E+00
+859.37E-12,-2.53465437702840E+00,+11.7625522576273E+00
+875.00E-12,-2.32544935680929E+00,+11.6579497475177E+00
+890.62E-12,-2.13716483861212E+00,+11.5533472374082E+00
+906.25E-12,-1.94888032041494E+00,+11.5115062333644E+00
+921.87E-12,-1.76059580221776E+00,+11.4905857313424E+00
+937.50E-12,-1.59323178604249E+00,+11.5324267353862E+00
+953.12E-12,-1.42586776986722E+00,+11.6370292454958E+00
+968.75E-12,-1.25850375369195E+00,+11.7625522576272E+00
+984.37E-12,-1.11206023953858E+00,+11.9299162738025E+00
+1.00000E-09,-944.69622336332E-03,+12.1182007919997E+00
+1.01563E-09,-777.33220718805E-03,+12.3064853101968E+00
+1.03125E-09,-609.96819101278E-03,+12.4947698283940E+00
+1.04688E-09,-442.60417483750E-03,+12.7039748486131E+00
+1.06250E-09,-275.24015866224E-03,+12.9131798688322E+00
+1.07813E-09,-128.79664450888E-03,+13.1223848890513E+00
+1.09375E-09,+17.64686964449E-03,+13.3525104112923E+00
+1.10938E-09,+143.16988177595E-03,+13.6035564355552E+00
+1.12500E-09,+268.69289390740E-03,+13.8755229618400E+00
+1.14063E-09,+352.37490199504E-03,+14.1474894881248E+00
+1.15625E-09,+415.13640806078E-03,+14.3985355123877E+00
+1.17188E-09,+436.05691008269E-03,+14.6286610346287E+00
+1.18750E-09,+415.13640806079E-03,+14.7541840467602E+00
+1.20313E-09,+373.29540401698E-03,+14.8169455528259E+00
+1.21875E-09,+310.53389795126E-03,+14.7541840467602E+00
+1.23438E-09,+205.93138784173E-03,+14.5449790265412E+00
+1.25000E-09,+59.48787368838E-03,+14.2311714962126E+00
+1.26563E-09,-128.79664450879E-03,+13.7081589456649E+00
+1.28125E-09,-358.92216674977E-03,+13.1014643870296E+00
+1.29687E-09,-609.96819101267E-03,+12.3901673182847E+00
+1.31250E-09,-902.85521931938E-03,+11.6161087434741E+00
+1.32812E-09,-1.21666274964799E+00,+10.8420501686635E+00
+1.34375E-09,-1.55139078199854E+00,+10.1098325978967E+00
+1.35937E-09,-1.86519831232718E+00,+9.48221753723937E+00
+1.37500E-09,-2.19992634467771E+00,+8.91736398264782E+00
+1.39062E-09,-2.49281337298443E+00,+8.51987444423153E+00
+1.40625E-09,-2.76477989926925E+00,+8.26882841996857E+00
+1.42187E-09,-3.01582592353218E+00,+8.12238490581517E+00
+1.43750E-09,-3.24595144577317E+00,+8.08054390177132E+00
+1.45312E-09,-3.45515646599226E+00,+8.08054390177131E+00
+1.46875E-09,-3.62252048216754E+00,+8.08054390177131E+00
+1.48437E-09,-3.78988449834281E+00,+7.99686189368370E+00
+1.50000E-09,-3.93632801249618E+00,+7.85041837953036E+00
+1.51562E-09,-4.06185102462764E+00,+7.51569034717990E+00
+1.53125E-09,-4.18737403675910E+00,+7.05543930269793E+00
+1.54687E-09,-4.29197654686865E+00,+6.49058574810643E+00
+1.56250E-09,-4.35473805293439E+00,+5.65376566723018E+00
+1.57812E-09,-4.41749955900011E+00,+4.75418408028817E+00
+1.59375E-09,-4.41749955900013E+00,+3.72907948121463E+00
+1.60937E-09,-4.39657905697823E+00,+2.68305438011920E+00
+1.62500E-09,-4.35473805293443E+00,+1.63702927902383E+00
+1.64062E-09,-4.27105604484681E+00,+632.84518197219E-03
+1.65625E-09,-4.18737403675917E+00,-287.65690699183E-03
+1.67187E-09,-4.12461253069343E+00,-1.10355648584636E+00
+1.68750E-09,-4.08277152664961E+00,-1.71025104448175E+00
+1.70312E-09,-4.08277152664959E+00,-2.23326359502950E+00
+1.71875E-09,-4.10369202867150E+00,-2.56799162738012E+00
+1.73437E-09,-4.20829453878101E+00,-2.75627614557736E+00
+1.75000E-09,-4.33381755091245E+00,-2.86087865568693E+00
+1.76562E-09,-4.50118156708769E+00,-2.81903765164318E+00
+1.78125E-09,-4.66854558326297E+00,-2.75627614557746E+00
+1.79687E-09,-4.83590959943824E+00,-2.67259413748983E+00
+1.81250E-09,-4.96143261156971E+00,-2.58891212940220E+00
+1.82812E-09,-5.04511461965736E+00,-2.56799162738026E+00
+1.84375E-09,-5.06603512167930E+00,-2.63075313344595E+00
+1.85937E-09,-5.02419411763551E+00,-2.83995815366498E+00
+1.87500E-09,-4.94051210954789E+00,-3.13284518197166E+00
+1.89062E-09,-4.79406859539456E+00,-3.63493723049737E+00
+1.90625E-09,-4.62670457921930E+00,-4.24163178913268E+00
+1.92187E-09,-4.45934056304403E+00,-4.95292885787753E+00
+1.93750E-09,-4.31289704889066E+00,-5.83158994279762E+00
+1.95312E-09,-4.20829453878110E+00,-6.75209203176153E+00
+1.96875E-09,-4.14553303271535E+00,-7.71443512476937E+00
+1.98437E-09,-4.14553303271532E+00,-8.61401671171148E+00
+2.00000E-09,-4.18737403675912E+00,-9.47175729460975E+00
+2.01562E-09,-4.31289704889053E+00,-10.2248953673985E+00
+2.03125E-09,-4.45934056304388E+00,-10.8734309300777E+00
+2.04687E-09,-4.62670457921915E+00,-11.4592049866912E+00
+2.06250E-09,-4.77314809337251E+00,-11.8985355291513E+00
+2.07812E-09,-4.87775060348207E+00,-12.2541840635238E+00
+2.09375E-09,-4.91959160752592E+00,-12.5470710918306E+00
+2.10937E-09,-4.85683010146025E+00,-12.7981171160935E+00
+2.12500E-09,-4.73130708932883E+00,-13.0491631403564E+00
+2.14062E-09,-4.45934056304411E+00,-13.3420501686631E+00
+2.15625E-09,-4.10369202867169E+00,-13.6976987030355E+00
+2.17187E-09,-3.66436148621164E+00,-14.0951882414518E+00
+2.18750E-09,-3.09950793162017E+00,-14.5345187839118E+00
+2.20312E-09,-2.49281337298487E+00,-15.0156903304157E+00
+2.21875E-09,-1.86519831232759E+00,-15.4968618769196E+00
+2.23437E-09,-1.23758325167032E+00,-15.9361924193797E+00
+2.25000E-09,-609.96819101310E-03,-16.3546024598179E+00
+2.26562E-09,-66.03513844342E-03,-16.6265689861028E+00
+2.28125E-09,+415.13640806052E-03,-16.7730125002562E+00
+2.29687E-09,+833.54644849875E-03,-16.7939330022782E+00
+2.31250E-09,+1.08459247276173E+00,-16.5219664759936E+00
+2.32812E-09,+1.31471799500273E+00,-16.1453974395993E+00
+2.34375E-09,+1.41932050511235E+00,-15.5596233829859E+00
+2.35937E-09,+1.48208201117810E+00,-14.7646443061535E+00
+2.37500E-09,+1.52392301522193E+00,-13.8859832212334E+00
+2.39062E-09,+1.52392301522195E+00,-12.8399581201381E+00
+2.40625E-09,+1.56576401926575E+00,-11.7520920149988E+00
+2.42187E-09,+1.62852552533146E+00,-10.6433054078377E+00
+2.43750E-09,+1.75404853746288E+00,-9.59728030674219E+00
+2.45312E-09,+1.94233305566001E+00,-8.61401671171250E+00
+2.46875E-09,+2.19337907992288E+00,-7.73535562679227E+00
+2.48437E-09,+2.46534560620769E+00,-7.06589956209102E+00
+2.50000E-09,+2.77915313653628E+00,-6.50104600749945E+00
+2.51562E-09,+3.11388116888681E+00,-6.16631797514877E+00
+2.53125E-09,+3.44860920123735E+00,-5.93619245290771E+00
+2.54687E-09,+3.76241673156601E+00,-5.83158994279808E+00
+2.56250E-09,+4.01346275582894E+00,-5.85251044481991E+00
+2.57812E-09,+4.26450878009183E+00,-5.89435144886372E+00
+2.59375E-09,+4.43187279626717E+00,-5.93619245290754E+00
+2.60937E-09,+4.55739580839865E+00,-5.91527195088567E+00
+2.62500E-09,+4.64107781648631E+00,-5.85251044481997E+00
+2.64062E-09,+4.66199831850825E+00,-5.64330542460098E+00
+2.65625E-09,+4.64107781648637E+00,-5.32949789427240E+00
+2.67187E-09,+4.62015731446446E+00,-4.95292885787809E+00
+2.68750E-09,+4.53647530637687E+00,-4.42991630733049E+00
+2.70312E-09,+4.43187279626734E+00,-3.86506275273898E+00
+2.71875E-09,+4.30634978413590E+00,-3.23744769208176E+00
+2.73437E-09,+4.13898576796065E+00,-2.58891212940257E+00
+2.75000E-09,+3.97162175178539E+00,-1.96129706874533E+00
+2.76562E-09,+3.76241673156633E+00,-1.39644351415375E+00
+2.78125E-09,+3.53229120932535E+00,-936.19246967168E-03
+2.79687E-09,+3.30216568708435E+00,-559.62343327727E-03
+2.81250E-09,+3.07204016484336E+00,-455.02092316754E-03
+2.82812E-09,+2.86283514462427E+00,-475.94142518936E-03
+2.84375E-09,+2.69547112844896E+00,-726.98744945211E-03
+2.85937E-09,+2.59086861833937E+00,-1.29184100404343E+00
+2.87500E-09,+2.54902761429551E+00,-2.00313807278823E+00
+2.89062E-09,+2.59086861833927E+00,-3.00732216983959E+00
+2.90625E-09,+2.73731213249255E+00,-4.09518827497879E+00
+2.92187E-09,+2.92559665068971E+00,-5.24581588618379E+00
+2.93750E-09,+3.26032468304013E+00,-6.33368199132302E+00
+2.95312E-09,+3.63689371943446E+00,-7.29602508433092E+00
+2.96875E-09,+4.07622426189450E+00,-8.07008365914168E+00
+2.98437E-09,+4.53647530637648E+00,-8.48849369958012E+00
+3.00000E-09,+4.99672635085847E+00,-8.76046022586504E+00
+3.01562E-09,+5.41513639129665E+00,-8.65585771575578E+00
+3.03125E-09,+5.81262592971295E+00,-8.38389118947109E+00
+3.04687E-09,+6.18919496610733E+00,-7.98640165105491E+00
+3.06250E-09,+6.46116149239222E+00,-7.60983261466054E+00
+3.07812E-09,+6.71220751665513E+00,-7.31694558635377E+00
+3.09375E-09,+6.92141253687426E+00,-7.23326357826597E+00
+3.10937E-09,+7.13061755709334E+00,-7.46338910050673E+00
+3.12500E-09,+7.31890207529053E+00,-7.88179914094474E+00
+3.14062E-09,+7.56994809955339E+00,-8.63493721373319E+00
+3.15625E-09,+7.84191462583818E+00,-9.49267779663137E+00
+3.17187E-09,+8.17664265818869E+00,-10.4550208896391E+00
+3.18750E-09,+8.59505269862678E+00,-11.3336819745593E+00
+3.20312E-09,+9.03438324108685E+00,-12.1077405493700E+00
+3.21875E-09,+9.53647528961261E+00,-12.7144351080055E+00
+3.23437E-09,+10.0385673381384E+00,-13.0491631403563E+00
+3.25000E-09,+10.5615798886861E+00,-13.2792886625974E+00
+3.26562E-09,+11.0427514351900E+00,-13.3211296666413E+00
+3.28125E-09,+11.4193204715845E+00,-13.3838911727070E+00
+3.29687E-09,+11.7540485039351E+00,-13.4675731807947E+00
+3.31250E-09,+11.8795715160667E+00,-13.8441422171888E+00
+3.32812E-09,+11.9214125201106E+00,-14.3671547677363E+00
+3.34375E-09,+11.8168100100012E+00,-15.1412133425468E+00
+3.35937E-09,+11.5657639857384E+00,-16.1035564355545E+00
+3.37500E-09,+11.2519564554098E+00,-17.1077405326060E+00
+3.39062E-09,+10.7917054109279E+00,-18.0491631235919E+00
+3.40625E-09,+10.2686928603803E+00,-18.7395396903151E+00
+3.42187E-09,+9.72475980781065E+00,-19.2416317388411E+00
+3.43750E-09,+9.11806524917535E+00,-19.0533472206445E+00
+3.45312E-09,+8.51137069054003E+00,-18.5512551721190E+00
+3.46875E-09,+7.88375562988275E+00,-17.5679915770897E+00
+3.48437E-09,+7.27706107124738E+00,-16.1035564355565E+00
+3.50000E-09,+6.69128701463392E+00,-14.4717572778477E+00
+3.51562E-09,+6.12643346004239E+00,-12.7144351080076E+00
+3.53125E-09,+5.62434141151653E+00,-11.1244769543424E+00
+3.54687E-09,+5.12224936299069E+00,-9.68096231483046E+00
+3.56250E-09,+4.74568032659625E+00,-8.92782424204120E+00
+3.57812E-09,+4.36911129020189E+00,-8.50941420160272E+00
+3.59375E-09,+4.07622426189509E+00,-8.67677821777746E+00
+3.60937E-09,+3.84609873965402E+00,-9.49267779663136E+00
+3.62500E-09,+3.67873472347871E+00,-10.6014644037922E+00
+3.64062E-09,+3.57413221336911E+00,-12.2751045655444E+00
+3.65625E-09,+3.46952970325956E+00,-14.0533472374065E+00
+3.67187E-09,+3.40676819719380E+00,-15.9152719173563E+00
+3.68750E-09,+3.34400669112807E+00,-17.5889120791092E+00
+3.70312E-09,+3.28124518506235E+00,-19.0742677226648E+00
+3.71875E-09,+3.19756317697473E+00,-20.2248953338702E+00
+3.73437E-09,+3.13480167090898E+00,-20.8734308965498E+00
+3.75000E-09,+3.07204016484326E+00,-21.2290794309225E+00
+3.76562E-09,+3.03019916079942E+00,-20.9571129046383E+00
+3.78125E-09,+3.05111966282127E+00,-20.3504183460032E+00
+3.79687E-09,+3.07204016484319E+00,-19.4926777631051E+00
+3.81250E-09,+3.23940418101833E+00,-18.2792886458348E+00
+3.82812E-09,+3.46952970325929E+00,-17.0240585245202E+00
+3.84375E-09,+3.78333723358785E+00,-15.7269873991619E+00
+3.85937E-09,+4.20174727402597E+00,-14.5763597879567E+00
+3.87500E-09,+4.64107781648604E+00,-13.5303346868612E+00
+3.89062E-09,+5.14316986501183E+00,-12.7562761120503E+00
+3.90625E-09,+5.64526191353761E+00,-12.1914225574587E+00
+3.92187E-09,+6.16827446408537E+00,-11.7730125170204E+00
+3.93750E-09,+6.69128701463306E+00,-11.6474895048887E+00
+3.95312E-09,+7.17245856113705E+00,-11.5219664927573E+00
+3.96875E-09,+7.61178910359713E+00,-11.4592049866915E+00
+3.98437E-09,+8.05111964605724E+00,-11.2499999664725E+00
+4.00000E-09,+8.46952968649542E+00,-10.9571129381658E+00
+4.01562E-09,+8.86701922491175E+00,-10.4131798855963E+00
+4.03125E-09,+9.26450876332801E+00,-9.66004181280766E+00
+4.04687E-09,+9.68291880376618E+00,-8.71861922182186E+00
+4.06250E-09,+10.1013288442044E+00,-7.54707110859507E+00
+4.07812E-09,+10.4988183826206E+00,-6.31276148930248E+00
+4.09375E-09,+10.8963079210369E+00,-5.03661086596607E+00
+4.10937E-09,+11.2728769574313E+00,-3.80230124667343E+00
+4.12500E-09,+11.6285254918037E+00,-2.63075313344651E+00
+4.14062E-09,+11.9214125201105E+00,-1.58472803235090E+00
+4.15625E-09,+12.1724585443734E+00,-685.14644540877E-03
+4.17187E-09,+12.4025840666145E+00,+130.75313344579E-03
+4.18750E-09,+12.5281070787459E+00,+779.28869612493E-03
+4.20312E-09,+12.6536300908774E+00,+1.42782425880417E+00
+4.21875E-09,+12.7163915969431E+00,+2.05543931946144E+00
+4.23438E-09,+12.7373120989650E+00,+2.76673638820632E+00
+4.25000E-09,+12.7163915969431E+00,+3.49895395897312E+00
+4.26563E-09,+12.6745505928993E+00,+4.35669454187135E+00
+4.28125E-09,+12.5908685848117E+00,+5.27719663083532E+00
+4.29688E-09,+12.5071865767241E+00,+6.26046022586513E+00
+4.31250E-09,+12.3398225605488E+00,+7.28556482493866E+00
+4.32813E-09,+12.1724585443735E+00,+8.31066942401230E+00
+4.34375E-09,+11.9841740261764E+00,+9.31485352106381E+00
+4.35938E-09,+11.7331280019134E+00,+10.2353556100279E+00
+4.37500E-09,+11.4611614756286E+00,+11.1140166949481E+00
+4.39063E-09,+11.1264334432781E+00,+11.8671547677368E+00
+4.40625E-09,+10.7707849089056E+00,+12.5366108324379E+00
+4.42188E-09,+10.3732953704894E+00,+13.1642258930951E+00
+4.43750E-09,+9.93396482802927E+00,+13.7290794476867E+00
+4.45313E-09,+9.43187277950340E+00,+14.2730125002564E+00
+4.46875E-09,+8.86701922491186E+00,+14.7960250508041E+00
+4.48438E-09,+8.23940416425452E+00,+15.2771965973080E+00
+4.50000E-09,+7.59086860157541E+00,+15.7374476417900E+00
+4.51563E-09,+6.87957153283043E+00,+16.1558576822282E+00
+4.53125E-09,+6.14735396206362E+00,+16.5324267186225E+00
+4.54688E-09,+5.41513639129683E+00,+16.9089957550169E+00
+4.56250E-09,+4.72475982457384E+00,+17.1600417792798E+00
+4.57813E-09,+4.05530375987278E+00,+17.3483262974769E+00
+4.59375E-09,+3.46952970325936E+00,+17.4110878035426E+00
+4.60938E-09,+3.00927865877735E+00,+17.3064852934330E+00
+4.62500E-09,+2.63270962238306E+00,+17.1391212772577E+00
+4.64063E-09,+2.38166359812014E+00,+16.7834727428851E+00
+4.65625E-09,+2.21429958194492E+00,+16.2813806943593E+00
+4.67188E-09,+2.15153807587922E+00,+15.6956066377457E+00
+4.68750E-09,+2.15153807587922E+00,+14.8587865568693E+00
+4.70313E-09,+2.15153807587924E+00,+13.9592049699272E+00
+4.71875E-09,+2.21429958194495E+00,+12.9131798688317E+00
+4.73438E-09,+2.23522008396687E+00,+11.7625522576267E+00
+4.75000E-09,+2.27706108801067E+00,+10.5910041443998E+00
+4.76563E-09,+2.27706108801067E+00,+9.35669452510703E+00
+4.78125E-09,+2.27706108801067E+00,+8.10146440379265E+00
+4.79688E-09,+2.27706108801068E+00,+6.84623428247786E+00
+4.81250E-09,+2.29798159003261E+00,+5.63284516520733E+00
+4.82813E-09,+2.36074309609837E+00,+4.48221755400229E+00
+4.84375E-09,+2.46534560620798E+00,+3.43619245290691E+00
+4.85938E-09,+2.65363012440517E+00,+2.47384935989915E+00
+4.87500E-09,+2.86283514462433E+00,+1.57426777295715E+00
+4.89063E-09,+3.17664267495299E+00,+800.20919814666E-03
+4.90625E-09,+3.53229120932545E+00,+214.43514153329E-03
+4.92188E-09,+3.90886024571985E+00,-266.73640497037E-03
+4.93750E-09,+4.28542928211417E+00,-371.33891507982E-03
+4.95313E-09,+4.66199831850859E+00,-350.41841305770E-03
+4.96875E-09,+5.01764685288092E+00,-99.37238879467E-03
+4.98438E-09,+5.26869287714381E+00,+339.95815366552E-03
+5.00000E-09,+5.47789789736281E+00,+842.05020219129E-03
+5.01563E-09,+5.60342090949420E+00,+1.36506275273892E+00
+5.03125E-09,+5.64526191353796E+00,+1.72071128711122E+00
+5.04688E-09,+5.62434141151592E+00,+1.90899580530779E+00
+5.06250E-09,+5.47789789736256E+00,+1.49058576486934E+00
+5.07813E-09,+5.31053388118720E+00,+716.52719005812E-03
+5.09375E-09,+5.08040835894619E+00,-559.62343327887E-03
+5.10938E-09,+4.82936233468326E+00,-2.37970710918517E+00
+5.12500E-09,+4.55739580839844E+00,-4.42991630733253E+00
+5.14063E-09,+4.28542928211362E+00,-6.77301253378648E+00
+5.15625E-09,+4.03438325785077E+00,-9.03242675215226E+00
+5.17188E-09,+3.80425773560982E+00,-11.1872384604084E+00
+5.18750E-09,+3.63689371943455E+00,-12.7353556100293E+00
+5.20313E-09,+3.46952970325933E+00,-13.9278242252774E+00
+5.21875E-09,+3.34400669112787E+00,-14.5135982818901E+00
+5.23438E-09,+3.21848367899643E+00,-14.4299162738020E+00
+5.25000E-09,+3.11388116888684E+00,-14.0533472374070E+00
+5.26563E-09,+2.96743765473347E+00,-13.1328451484428E+00
+5.28125E-09,+2.82099414058009E+00,-12.0658995453254E+00
+5.29688E-09,+2.65363012440468E+00,-10.9152719341202E+00
+5.31250E-09,+2.40258410014178E+00,-9.74372382089357E+00
+5.32813E-09,+2.13061757385688E+00,-8.63493721373236E+00
+5.34375E-09,+1.81681004352819E+00,-7.58891211263690E+00
+5.35938E-09,+1.46116150915574E+00,-6.52196650951944E+00
+5.37500E-09,+1.10551297478324E+00,-5.37133889831423E+00
+5.39063E-09,+708.02343636696E-03,-4.05334727093370E+00
+5.40625E-09,+331.45439997260E-03,-2.65167363546569E+00
+5.42188E-09,-45.11463642167E-03,-1.16631799191054E+00
+5.43750E-09,-358.92216675030E-03,+67.99162738161E-03
+5.45313E-09,-672.72969707893E-03,+988.49371634477E-03
+5.46875E-09,-965.61672538556E-03,+1.32322174869360E+00
+5.48438E-09,-1.21666274964846E+00,+528.24267185991E-03
+5.50000E-09,-1.44678827188946E+00,-936.19246967616E-03
+5.51563E-09,-1.67691379413042E+00,-3.94874476083246E+00
+5.53125E-09,-1.88611881434951E+00,-7.86087863893049E+00
+5.54688E-09,-2.09532383456865E+00,-12.4633890837518E+00
+5.56250E-09,-2.32544935680969E+00,-17.5889120791191E+00
+5.57813E-09,-2.57649538107263E+00,-22.4633890502229E+00
+5.59375E-09,-2.84846190735748E+00,-26.7939329687551E+00
+5.60938E-09,-3.14134893566427E+00,-29.4089957214921E+00
+5.62500E-09,-3.45515646599290E+00,-31.0198743771744E+00
+5.64063E-09,-3.78988449834352E+00,-29.9947697780976E+00
+5.65625E-09,-4.14553303271601E+00,-27.2123430091812E+00
+5.67188E-09,-4.52210206911036E+00,-23.0491631068176E+00
+5.68750E-09,-4.89867110550472E+00,-16.8148535042882E+00
+5.70313E-09,-5.27524014189916E+00,-10.2876568734514E+00
+5.71875E-09,-5.67272968031534E+00,-3.44665271228988E+00
+5.73438E-09,-6.04929871670975E+00,+2.34832634777805E+00
+5.75000E-09,-6.42586775310406E+00,+7.39016733505345E+00
+5.76563E-09,-6.78151628747647E+00,+10.0470710918323E+00
+5.78125E-09,-7.09532381780502E+00,+10.8002091646180E+00
+5.79688E-09,-7.38821084611165E+00,+10.0470710918233E+00
+5.81250E-09,-7.61833636835256E+00,+6.40690374000970E+00
+5.82813E-09,-7.80662088654961E+00,+2.05543931945041E+00
+5.84375E-09,-7.93214389868098E+00,-3.40481170826765E+00
+5.85938E-09,-8.01582590676853E+00,-8.80230122992009E+00
+5.87500E-09,-8.05766691081226E+00,-13.9069037232622E+00
+5.89063E-09,-8.05766691081226E+00,-17.5470710750713E+00
+5.90625E-09,-8.05766691081226E+00,-19.5554392691718E+00
+5.92188E-09,-8.05766691081240E+00,-20.3085773419536E+00
+5.93750E-09,-8.12042841687817E+00,-17.9654811154977E+00
+5.95313E-09,-8.20411042496595E+00,-14.5554392859225E+00
+5.96875E-09,-8.35055393911950E+00,-9.49267779661807E+00
+5.98438E-09,-8.58067946136050E+00,-3.34205020217689E+00
